<svg width="234" height="197" viewBox="0 0 234 197" fill="none" xmlns="http://www.w3.org/2000/svg">
<g filter="url(#filter0_d_410_1515)">
<path fill-rule="evenodd" clip-rule="evenodd" d="M220.481 11.7777C223.993 14.5023 224.624 19.5663 221.891 23.0885L137.532 131.808C134.799 135.331 129.737 135.977 126.225 133.253C122.714 130.528 122.083 125.464 124.816 121.942L209.175 13.2218C211.908 9.69965 216.97 9.0531 220.481 11.7777ZM149.475 34.5264C152.987 37.251 153.618 42.315 150.885 45.8371L124.964 79.2427C122.232 82.7649 117.169 83.4114 113.658 80.6868C110.147 77.9622 109.516 72.8982 112.249 69.3761L138.169 35.9705C140.902 32.4483 145.964 31.8018 149.475 34.5264ZM91.8755 15.6187C95.3869 18.3433 96.0179 23.4073 93.2849 26.9294L24.7135 115.302C21.9806 118.825 16.9185 119.471 13.4071 116.746C9.89575 114.022 9.2647 108.958 11.9977 105.436L80.5691 17.0628C83.302 13.5406 88.3641 12.8941 91.8755 15.6187ZM78.8577 104.283C82.3691 107.008 83.0001 112.072 80.2672 115.594L27.4837 183.62C24.7507 187.142 19.6887 187.788 16.1773 185.064C12.6659 182.339 12.0349 177.275 14.7678 173.753L67.5513 105.727C70.2843 102.205 75.3463 101.558 78.8577 104.283ZM99.8393 149.755C103.351 152.48 103.982 157.544 101.249 161.066L88.5242 177.465C85.7912 180.987 80.7292 181.634 77.2178 178.909C73.7064 176.184 73.0753 171.12 75.8083 167.598L88.5329 151.199C91.2658 147.677 96.3279 147.03 99.8393 149.755Z" fill="url(#paint0_linear_410_1515)"/>
</g>
<defs>
<filter id="filter0_d_410_1515" x="0.298828" y="0.0917969" width="233.291" height="196.658" filterUnits="userSpaceOnUse" color-interpolation-filters="sRGB">
<feFlood flood-opacity="0" result="BackgroundImageFix"/>
<feColorMatrix in="SourceAlpha" type="matrix" values="0 0 0 0 0 0 0 0 0 0 0 0 0 0 0 0 0 0 127 0" result="hardAlpha"/>
<feOffset/>
<feGaussianBlur stdDeviation="5"/>
<feComposite in2="hardAlpha" operator="out"/>
<feColorMatrix type="matrix" values="0 0 0 0 0.979167 0 0 0 0 0.509983 0 0 0 0 0.739787 0 0 0 1 0"/>
<feBlend mode="normal" in2="BackgroundImageFix" result="effect1_dropShadow_410_1515"/>
<feBlend mode="normal" in="SourceGraphic" in2="effect1_dropShadow_410_1515" result="shape"/>
</filter>
<linearGradient id="paint0_linear_410_1515" x1="154.002" y1="38.5002" x2="-8.07381" y2="149.121" gradientUnits="userSpaceOnUse">
<stop stop-color="#EFB2D0"/>
<stop offset="1" stop-color="#E6569C"/>
</linearGradient>
</defs>
</svg>
